<?xml version="1.0" standalone="no"?>
<!DOCTYPE svg PUBLIC "-//W3C//DTD SVG 20010904//EN"
 "http://www.w3.org/TR/2001/REC-SVG-20010904/DTD/svg10.dtd">
<svg version="1.0" xmlns="http://www.w3.org/2000/svg"
 class="svg-image" viewBox="0 0 450.000000 253.000000"
 preserveAspectRatio="xMidYMid meet">
<metadata>
Created by potrace 1.10, written by Peter Selinger 2001-2011
</metadata>
<g transform="translate(0.000000,253.000000) scale(0.100000,-0.100000)"
fill="#df3333" stroke="none">
<path d="M848 2523 c56 -2 148 -2 205 0 56 1 10 3 -103 3 -113 0 -159 -2 -102
-3z"/>
<path d="M1223 2523 c9 -2 25 -2 35 0 9 3 1 5 -18 5 -19 0 -27 -2 -17 -5z"/>
<path d="M2226 2515 c-3 -8 -1 -15 4 -15 6 0 10 4 10 9 0 6 24 12 53 14 l52 3
-56 2 c-43 2 -58 -2 -63 -13z"/>
<path d="M3143 2523 c9 -2 25 -2 35 0 9 3 1 5 -18 5 -19 0 -27 -2 -17 -5z"/>
<path d="M3318 2508 c-23 -35 -39 -68 -34 -68 3 0 15 18 27 40 l22 40 201 3
201 2 -201 3 c-199 2 -202 2 -216 -20z"/>
<path d="M1160 2508 c0 -9 5 -20 10 -23 13 -8 13 5 0 25 -8 13 -10 13 -10 -2z"/>
<path d="M1259 2493 c-13 -16 -12 -17 4 -4 9 7 17 15 17 17 0 8 -8 3 -21 -13z"/>
<path d="M3136 2497 c3 -10 9 -15 12 -12 3 3 0 11 -7 18 -10 9 -11 8 -5 -6z"/>
<path d="M2341 2484 c0 -11 3 -14 6 -6 3 7 2 16 -1 19 -3 4 -6 -2 -5 -13z"/>
<path d="M780 2471 c14 -11 29 -21 34 -21 4 0 6 -10 3 -21 -4 -16 -3 -19 5
-11 16 16 4 35 -33 55 l-34 19 25 -21z"/>
<path d="M3687 2464 c-30 -16 -33 -44 -7 -51 13 -4 13 -3 0 6 -13 10 -11 15
15 36 34 28 32 31 -8 9z"/>
<path d="M1189 2455 c5 -11 17 -29 26 -40 16 -20 16 -20 6 0 -5 11 -17 29 -26
40 -16 20 -16 20 -6 0z"/>
<path d="M2221 2454 c0 -11 3 -14 6 -6 3 7 2 16 -1 19 -3 4 -6 -2 -5 -13z"/>
<path d="M2350 2451 c0 -6 4 -13 10 -16 6 -3 7 1 4 9 -7 18 -14 21 -14 7z"/>
<path d="M2372 2390 c0 -19 2 -27 5 -17 2 9 2 25 0 35 -3 9 -5 1 -5 -18z"/>
<path d="M2184 2388 l-19 -23 23 19 c21 18 27 26 19 26 -2 0 -12 -10 -23 -22z"/>
<path d="M3238 2380 c-22 -39 -15 -39 12 0 12 17 18 30 13 30 -4 0 -16 -14
-25 -30z"/>
<path d="M790 2370 c10 -7 12 -12 4 -17 -6 -5 -14 -19 -18 -33 -6 -22 -4 -21
14 7 21 32 20 53 -3 53 -7 0 -6 -4 3 -10z"/>
<path d="M1255 2355 c29 -47 101 -139 121 -155 10 -8 6 1 -10 20 -15 19 -48
62 -73 95 -52 69 -65 83 -38 40z"/>
<path d="M3685 2370 c-6 -9 11 -50 21 -50 2 0 0 8 -5 18 -7 13 -6 23 1 30 9 9
9 12 1 12 -7 0 -15 -4 -18 -10z"/>
<path d="M2125 2346 c-9 -13 -20 -47 -24 -76 -7 -42 -15 -58 -40 -77 -17 -13
-31 -28 -31 -33 0 -5 18 8 40 30 29 28 40 47 40 69 0 39 16 81 38 97 10 8 12
13 5 14 -7 0 -20 -11 -28 -24z"/>
<path d="M3199 2323 c-32 -39 -44 -57 -32 -50 13 8 57 67 50 67 -2 0 -10 -8
-18 -17z"/>
<path d="M2267 2272 c-2 -11 -1 -37 3 -58 7 -37 8 -36 9 19 1 58 -3 72 -12 39z"/>
<path d="M780 2232 c6 -13 14 -21 18 -18 3 4 -2 14 -12 24 -18 16 -18 16 -6
-6z"/>
<path d="M1723 2235 c-3 -9 -3 -18 -1 -21 3 -3 8 4 11 16 6 23 -1 27 -10 5z"/>
<path d="M2362 2225 c0 -16 2 -22 5 -12 2 9 2 23 0 30 -3 6 -5 -1 -5 -18z"/>
<path d="M3129 2233 c-13 -16 -12 -17 4 -4 16 13 21 21 13 21 -2 0 -10 -8 -17
-17z"/>
<path d="M3676 2211 c-10 -11 -16 -29 -13 -43 l4 -23 2 24 c0 14 8 33 18 43 9
10 14 18 11 18 -3 0 -13 -9 -22 -19z"/>
<path d="M2194 2195 c-4 -14 -4 -29 0 -32 3 -4 6 3 6 15 0 11 8 26 18 31 16
10 16 10 0 11 -11 0 -20 -10 -24 -25z"/>
<path d="M818 2175 c2 -19 8 -38 13 -41 10 -6 0 57 -10 68 -4 5 -5 -8 -3 -27z"/>
<path d="M3094 2188 l-19 -23 23 19 c21 18 27 26 19 26 -2 0 -12 -10 -23 -22z"/>
<path d="M2363 2161 c2 -33 27 -59 27 -27 0 9 -4 16 -9 16 -5 0 -12 10 -14 23
-3 12 -4 7 -4 -12z"/>
<path d="M1420 2145 c33 -34 33 -35 15 -55 -16 -17 -17 -25 -7 -40 17 -28 15
-39 -10 -60 -18 -15 -22 -27 -21 -73 1 -31 9 -72 18 -91 12 -25 15 -47 10 -75
-5 -33 -3 -46 14 -67 25 -31 27 -46 6 -38 -22 9 -18 -13 4 -25 14 -8 27 -6 50
5 33 16 33 34 0 34 -11 0 -23 10 -29 24 -5 13 -15 26 -22 29 -10 3 -11 8 -1
25 7 12 10 29 6 38 -4 11 -3 15 5 10 22 -14 21 13 -2 31 -20 15 -25 30 -31 91
-3 39 -4 72 -1 72 3 0 12 -15 20 -32 12 -28 14 -30 15 -10 1 23 21 32 21 9 0
-18 60 -111 66 -104 7 6 -63 134 -77 143 -5 3 -7 15 -4 26 4 12 0 27 -11 39
-9 10 -14 22 -10 27 4 4 16 -4 27 -17 10 -13 19 -22 20 -20 0 2 2 17 4 32 4
30 21 57 37 57 5 0 4 -9 -2 -21 -8 -15 -8 -24 0 -34 6 -8 9 -23 6 -33 -4 -12
1 -25 14 -37 20 -18 20 -18 20 13 0 21 7 35 20 42 11 6 20 17 20 25 0 8 11 22
25 31 30 19 32 34 7 34 -20 0 -45 -24 -55 -53 -9 -25 -30 -17 -32 12 -3 35
-25 43 -61 20 l-31 -19 -30 35 c-17 19 -34 35 -39 35 -4 0 7 -16 26 -35z"/>
<path d="M2842 2138 c-17 -17 -15 -33 8 -78 30 -58 26 -88 -17 -135 -26 -27
-28 -31 -7 -12 55 49 58 35 8 -48 -19 -33 -33 -52 -30 -43 2 9 -2 22 -10 29
-8 6 -12 14 -10 17 4 4 -51 52 -118 103 -24 19 -146 81 -193 99 -18 6 -34 19
-36 28 -4 15 -5 15 -6 1 -1 -14 -8 -15 -43 -8 -24 4 -62 8 -85 9 -34 0 -43 4
-44 18 0 10 -3 12 -6 5 -2 -7 -18 -13 -35 -13 -23 0 -29 4 -24 15 3 8 1 15 -4
15 -6 0 -10 -8 -10 -19 0 -15 -10 -19 -52 -24 -29 -3 -59 -7 -67 -9 -10 -2
-18 8 -23 27 l-7 30 3 -31 c2 -29 -1 -33 -37 -44 -68 -20 -160 -69 -227 -120
-71 -54 -81 -57 -100 -35 -7 8 -18 15 -24 15 -6 0 1 -10 16 -21 30 -22 36 -39
15 -39 -21 0 -38 40 -43 101 -4 51 -1 63 22 99 19 29 24 44 17 51 -11 11 -23
-5 -59 -81 -63 -134 126 -369 472 -588 l111 -69 -2 61 c-1 38 -7 71 -18 87 -9
14 -22 51 -28 83 -11 54 -11 58 10 72 11 8 21 25 21 36 0 12 15 34 33 49 31
26 32 30 32 100 0 52 4 73 14 77 9 3 11 -1 7 -15 -8 -27 2 -53 19 -47 16 6 27
-51 29 -153 1 -73 12 -105 23 -65 9 37 18 25 21 -31 2 -42 -2 -59 -18 -80 -25
-32 -68 -39 -49 -9 8 12 9 30 4 48 -7 24 -9 26 -13 9 -6 -31 -19 -39 -27 -16
-3 11 1 44 9 72 19 62 19 69 6 69 -5 0 -10 -6 -10 -14 0 -7 -9 -16 -19 -19
-14 -3 -21 -17 -27 -52 -9 -60 13 -108 61 -136 39 -23 52 -56 35 -88 -22 -42
2 -39 81 12 340 219 509 404 509 560 0 30 -7 53 -25 77 -31 42 -34 65 -5 50
11 -6 20 -17 20 -25 0 -9 9 -23 20 -32 11 -10 20 -30 20 -45 0 -16 4 -28 10
-28 17 0 31 39 33 91 2 49 2 50 20 28 9 -11 17 -33 17 -47 0 -25 1 -25 14 -6
8 10 18 16 22 12 4 -4 2 -14 -5 -21 -6 -8 -9 -22 -5 -30 3 -9 -3 -29 -14 -44
-31 -44 -64 -113 -59 -126 5 -15 57 63 57 85 0 9 5 20 10 23 6 3 10 -3 10 -14
0 -29 18 -26 26 4 11 44 21 27 17 -27 -6 -80 -11 -96 -33 -103 -27 -9 -25 -25
3 -25 21 -1 21 -1 4 -14 -16 -12 -16 -17 -6 -35 11 -17 10 -23 -4 -39 -9 -10
-17 -24 -17 -30 0 -7 -11 -12 -25 -12 -33 0 -32 -15 4 -33 19 -10 34 -11 45
-5 34 19 29 -2 -8 -37 l-37 -35 27 0 c22 0 25 -3 16 -12 -8 -8 -43 -13 -95
-13 -72 0 -82 -2 -85 -19 -3 -16 1 -18 30 -14 18 3 41 8 51 13 14 6 12 -2 -10
-34 -14 -22 -33 -41 -40 -41 -8 0 -12 -4 -9 -8 3 -5 -11 -14 -30 -21 -28 -10
-38 -10 -50 0 -16 13 -104 16 -123 5 -6 -4 -11 -16 -11 -27 0 -18 4 -20 29
-14 19 4 40 1 58 -9 l28 -15 -32 -1 c-23 0 -42 -10 -67 -35 -27 -26 -44 -35
-69 -35 -19 0 -40 -6 -46 -14 -14 -17 0 -29 23 -20 17 6 46 -11 46 -27 0 -5
-7 -9 -15 -9 -8 0 -15 -7 -15 -15 0 -9 -8 -18 -17 -22 -10 -3 -31 -18 -46 -32
-27 -25 -29 -25 -58 -9 -16 9 -29 13 -29 8 0 -6 -7 -10 -15 -10 -8 0 -24 -5
-35 -12 -15 -10 -24 -9 -45 2 -22 12 -31 12 -58 0 -41 -17 -93 -17 -134 0 -27
12 -36 12 -57 1 -21 -12 -30 -11 -62 4 -29 14 -42 15 -56 6 -26 -16 -36 -14
-60 14 -12 14 -30 25 -40 25 -11 0 -18 7 -18 19 0 11 -9 21 -22 24 -18 5 -19
8 -8 22 10 12 23 15 42 11 15 -3 28 -2 28 2 0 17 -26 32 -56 32 -23 0 -42 10
-67 35 -23 23 -45 35 -64 35 l-28 1 25 14 c14 8 37 12 52 9 30 -6 45 10 29 30
-19 23 -76 28 -116 11 -27 -11 -42 -12 -56 -4 -11 5 -24 7 -29 4 -6 -3 -10 1
-10 9 0 9 -7 16 -15 16 -9 0 -20 11 -25 24 -5 13 -14 27 -19 31 -25 15 -8 21
29 12 30 -9 43 -8 52 1 20 20 -9 33 -72 31 -82 -2 -100 0 -100 12 0 5 4 8 9 4
5 -3 12 -1 15 4 5 8 -58 81 -70 81 -2 0 -3 -11 -2 -25 1 -14 5 -25 9 -25 3 0
13 -18 22 -41 9 -22 20 -38 26 -35 5 4 12 2 16 -3 3 -6 11 -8 18 -5 7 2 24
-16 39 -40 37 -61 70 -81 134 -80 42 0 49 -2 37 -12 -21 -14 -10 -44 16 -44
32 0 110 -71 105 -95 -5 -19 11 -39 97 -117 14 -13 34 -18 72 -17 30 1 63 -3
74 -10 15 -8 30 -8 53 0 34 12 48 7 33 -13 -18 -23 -25 -69 -12 -84 9 -11 9
-18 -1 -29 -7 -8 -17 -12 -22 -9 -16 10 -110 -97 -104 -119 6 -25 -21 -67 -44
-67 -9 0 -25 -9 -35 -20 -18 -20 -19 -20 -39 -1 -12 10 -41 31 -66 47 -25 16
-72 55 -105 87 -47 46 -56 60 -45 67 9 5 19 5 27 -2 9 -7 13 -7 13 0 0 18 -18
24 -39 13 -15 -9 -22 -6 -35 14 -9 14 -23 36 -32 50 -23 35 -11 31 38 -12 l42
-38 -23 33 c-13 18 -36 38 -53 45 -25 10 -34 23 -53 83 -13 39 -22 89 -22 112
1 23 -1 42 -5 42 -5 0 -8 11 -8 23 0 13 -9 32 -20 42 -18 17 -22 17 -35 4 -13
-13 -22 -9 -70 38 -30 29 -59 53 -65 53 -6 0 10 -19 37 -41 60 -52 72 -73 73
-128 0 -42 -1 -43 -18 -28 -38 34 -57 -34 -27 -93 9 -17 14 -30 11 -30 -2 0 9
-27 25 -60 16 -33 29 -64 29 -68 0 -17 81 -132 122 -172 54 -54 171 -140 221
-163 52 -23 75 -22 89 7 l11 25 33 -26 c21 -15 34 -34 34 -48 0 -12 9 -30 20
-40 26 -23 25 -32 -2 -57 -19 -17 -18 -16 10 2 32 22 45 20 72 -11 15 -17 57
-39 74 -39 11 0 27 6 35 14 9 8 32 16 51 17 41 4 117 42 143 71 22 26 24 120
2 138 -11 9 -20 8 -45 -10 -20 -14 -28 -16 -24 -7 3 8 -6 26 -20 40 -40 41
-29 110 14 87 13 -7 25 -4 45 12 l28 22 55 -59 c30 -32 50 -50 44 -39 -5 10
-22 30 -37 44 -44 41 -49 57 -26 87 12 14 21 33 21 41 0 13 3 12 19 -2 11 -10
26 -16 33 -13 9 4 8 6 -4 6 -18 1 -68 56 -68 74 0 7 -14 30 -32 51 -26 32 -28
37 -11 32 11 -3 35 0 53 8 21 9 43 11 61 6 48 -14 169 82 169 134 0 28 43 70
93 91 36 15 48 37 27 50 -23 14 -8 24 18 12 16 -9 35 -11 47 -7 11 4 23 6 26
4 8 -5 89 82 89 95 0 19 40 34 55 21 10 -9 21 -8 42 4 15 8 24 15 20 16 -5 0
-17 -5 -28 -10 -23 -13 -25 -4 -3 17 8 9 13 24 11 35 -3 11 2 22 12 28 10 5
17 19 16 31 -1 19 -9 27 -44 46 -2 1 6 15 18 31 22 31 28 72 12 72 -6 0 -6 13
1 33 5 17 16 61 23 97 l13 64 -30 28 c-25 24 -28 32 -22 63 6 31 4 37 -15 42
-26 7 -26 15 -1 38 11 10 18 21 15 23 -3 3 -11 -2 -18 -11 -11 -15 -15 -16
-41 -2 -26 14 -31 14 -46 0 -11 -10 -16 -25 -13 -43 5 -26 3 -25 -35 16 -42
45 -51 49 -70 30z m-385 -96 c49 -17 117 -47 151 -67 78 -45 178 -137 168
-153 -5 -9 -27 6 -69 44 -69 62 -206 134 -302 158 -233 57 -479 -3 -653 -159
-63 -57 -91 -51 -35 7 21 22 68 59 104 84 184 122 428 155 636 86z m-287 -34
c0 -9 3 -10 8 -2 4 6 31 11 60 12 43 1 52 -2 52 -16 0 -14 2 -14 9 -3 7 11 10
10 14 -5 4 -17 5 -17 6 2 1 20 2 20 61 6 33 -8 60 -20 60 -26 0 -6 -10 -27
-21 -46 -13 -21 -15 -30 -6 -22 8 7 20 26 27 42 7 17 14 30 16 30 2 0 29 -11
61 -25 64 -29 149 -83 176 -112 17 -20 16 -21 -25 -55 -24 -19 -59 -45 -78
-58 -19 -13 -37 -27 -40 -30 -3 -4 -31 -26 -62 -49 -32 -24 -58 -45 -58 -48 0
-6 70 45 189 138 95 74 104 78 123 65 11 -8 27 -12 36 -8 28 10 -22 -51 -95
-116 -73 -65 -145 -119 -259 -193 l-71 -47 -15 33 -15 34 42 35 c38 33 58 73
30 62 -8 -3 -12 9 -13 32 -2 48 -7 69 -27 128 -9 27 -18 54 -19 59 -1 6 -5 16
-10 23 -4 7 -5 25 -2 38 4 15 3 23 -2 20 -16 -10 -32 19 -26 50 3 18 1 24 -4
16 -11 -16 -42 -5 -43 17 -1 11 -3 10 -6 -4 -7 -28 -39 -66 -48 -57 -4 4 0
-10 9 -32 22 -52 20 -79 -5 -102 -12 -10 -32 -41 -46 -67 -27 -54 -42 -57 -24
-5 9 26 9 30 -1 20 -9 -9 -13 -44 -13 -104 0 -76 3 -92 16 -95 25 -7 40 -44
31 -76 l-7 -28 -120 79 c-117 77 -216 158 -282 231 -37 40 -40 53 -18 71 13
10 19 10 35 -5 11 -10 20 -13 20 -8 0 6 -8 14 -17 18 -15 6 -12 12 22 41 44
39 191 114 232 118 15 2 29 8 31 15 2 6 7 9 11 7 3 -2 22 -1 41 4 51 12 60 11
60 -2z m190 -296 c0 -7 -4 -10 -10 -7 -5 3 -10 16 -10 28 0 18 2 19 10 7 5 -8
10 -21 10 -28z m-836 -480 c35 -201 138 -361 300 -467 69 -45 76 -53 71 -75
-4 -14 -8 -26 -10 -28 -7 -8 -115 55 -182 105 -75 56 -133 119 -172 188 -29
49 -123 277 -117 282 2 2 26 -27 52 -66 27 -38 50 -68 51 -67 2 2 -3 28 -11
59 -8 30 -15 79 -16 109 -2 71 -2 74 9 63 5 -6 17 -52 25 -103z m848 -202 c23
-24 39 -52 44 -76 6 -35 4 -40 -34 -76 -47 -44 -79 -52 -39 -10 38 39 22 48
-20 12 -18 -17 -38 -30 -43 -30 -5 0 -17 -16 -26 -36 -14 -29 -15 -37 -4 -44
7 -4 10 -12 7 -16 -8 -13 15 -41 38 -46 18 -4 17 -6 -7 -18 -35 -17 -83 1
-103 39 l-13 26 -11 -28 c-20 -51 -14 -84 19 -107 36 -26 65 -20 55 10 -9 28
13 25 41 -5 13 -14 30 -25 38 -25 18 0 51 43 36 48 -14 5 -13 22 1 22 7 0 18
8 25 18 12 15 13 10 8 -33 -8 -72 -8 -72 -63 -100 -53 -26 -102 -32 -145 -15
-21 8 -26 7 -26 -6 0 -9 9 -18 20 -21 18 -5 19 -23 2 -23 -19 0 -146 102 -149
118 -6 43 -23 72 -42 72 -22 0 -41 22 -23 28 6 2 8 10 5 19 -4 11 -3 14 6 9
15 -10 71 15 71 31 0 7 10 21 22 33 21 20 21 20 2 20 -12 0 -21 7 -21 15 0 8
9 15 19 15 10 0 23 11 28 24 5 14 34 39 67 58 47 28 59 40 61 64 2 16 8 32 14
35 14 9 1 29 -20 29 -14 0 -14 2 -3 9 8 5 39 7 70 4 48 -4 61 -10 93 -43z
m-172 11 c7 -15 6 -23 -6 -35 -22 -23 -37 -20 -24 3 5 11 7 27 4 35 -9 23 13
20 26 -3z m13 -388 c-8 -20 -27 -10 -31 16 -3 20 -1 21 16 10 11 -7 18 -19 15
-26z m107 -3 c0 -13 -5 -18 -15 -14 -16 7 -19 17 -8 27 12 13 23 7 23 -13z"/>
<path d="M2061 1942 c-1 -26 20 -72 54 -117 12 -17 25 -39 28 -50 4 -18 5 -18
6 2 0 12 -3 25 -9 28 -16 10 -62 94 -70 128 -6 25 -8 27 -9 9z"/>
<path d="M2379 1873 c-13 -16 -12 -17 4 -4 9 7 17 15 17 17 0 8 -8 3 -21 -13z"/>
<path d="M1800 1796 c0 -9 224 -175 230 -170 2 3 -2 9 -10 14 -8 5 -26 17 -40
27 -41 30 -154 115 -167 125 -7 6 -13 8 -13 4z"/>
<path d="M2040 1616 c0 -3 15 -15 33 -27 23 -17 28 -18 18 -6 -14 18 -51 42
-51 33z"/>
<path d="M904 2101 c0 -11 4 -17 8 -15 10 7 10 34 0 34 -4 0 -8 -9 -8 -19z"/>
<path d="M3570 2106 c0 -8 7 -17 16 -20 14 -5 15 -4 5 8 -10 12 -8 15 11 19
20 4 20 4 -4 6 -18 1 -28 -4 -28 -13z"/>
<path d="M3632 2073 c-10 -4 -9 -8 5 -19 24 -18 45 -17 69 1 18 14 17 15 -8 4
-29 -13 -63 -5 -53 11 7 11 6 11 -13 3z"/>
<path d="M840 2055 c-8 -9 -21 -13 -34 -10 -20 6 -20 5 -2 -6 15 -9 22 -7 39
10 12 11 19 21 15 21 -3 0 -11 -7 -18 -15z"/>
<path d="M750 2030 c0 -8 10 -26 21 -40 11 -14 18 -19 14 -12 -30 57 -35 65
-35 52z"/>
<path d="M3726 2023 c-6 -14 -5 -15 5 -6 7 7 10 15 7 18 -3 3 -9 -2 -12 -12z"/>
<path d="M3699 1983 c-13 -16 -12 -17 4 -4 16 13 21 21 13 21 -2 0 -10 -8 -17
-17z"/>
<path d="M823 1944 c23 -28 21 -43 -5 -54 -14 -5 -17 -9 -7 -9 8 -1 24 6 35
13 18 14 18 16 -11 43 -16 15 -22 19 -12 7z"/>
<path d="M3669 1943 c-13 -16 -12 -17 4 -4 16 13 21 21 13 21 -2 0 -10 -8 -17
-17z"/>
<path d="M3637 1917 c-4 -11 1 -21 16 -28 19 -10 20 -10 11 2 -6 8 -13 21 -16
28 -3 12 -6 12 -11 -2z"/>
<path d="M3650 1845 c-14 -8 -20 -14 -14 -15 5 0 19 7 30 15 24 18 16 19 -16
0z"/>
<path d="M3465 1840 c-3 -5 -1 -10 4 -10 6 0 11 5 11 10 0 6 -2 10 -4 10 -3 0
-8 -4 -11 -10z"/>
<path d="M868 1833 c6 -2 18 -2 25 0 6 3 1 5 -13 5 -14 0 -19 -2 -12 -5z"/>
<path d="M933 1833 c9 -2 23 -2 30 0 6 3 -1 5 -18 5 -16 0 -22 -2 -12 -5z"/>
<path d="M1077 1829 c31 -9 36 -21 19 -48 -6 -9 -5 -12 5 -9 19 6 23 36 9 53
-7 8 -24 15 -39 14 -25 -1 -24 -1 6 -10z"/>
<path d="M3382 1831 c-8 -4 -12 -19 -10 -32 2 -20 9 -24 45 -27 37 -3 103 19
103 34 0 2 -13 -2 -30 -11 -16 -8 -48 -15 -70 -15 -37 0 -41 2 -38 22 2 16 12
25 33 29 27 6 27 7 5 8 -14 0 -31 -3 -38 -8z"/>
<path d="M3528 1833 c12 -2 30 -2 40 0 9 3 -1 5 -23 4 -22 0 -30 -2 -17 -4z"/>
<path d="M3598 1823 c7 -3 16 -2 19 1 4 3 -2 6 -13 5 -11 0 -14 -3 -6 -6z"/>
<path d="M988 1788 c5 -5 16 -8 23 -6 8 3 3 7 -10 11 -17 4 -21 3 -13 -5z"/>
<path d="M3533 1778 c-15 -20 -25 -38 -20 -38 3 0 12 11 21 25 17 26 16 35 -1
13z"/>
<path d="M1043 1773 c9 -2 23 -2 30 0 6 3 -1 5 -18 5 -16 0 -22 -2 -12 -5z"/>
<path d="M960 1750 c6 -11 13 -20 16 -20 2 0 0 9 -6 20 -6 11 -13 20 -16 20
-2 0 0 -9 6 -20z"/>
<path d="M1002 1680 c0 -14 2 -19 5 -12 2 6 2 18 0 25 -3 6 -5 1 -5 -13z"/>
<path d="M3476 1685 c-9 -26 -7 -32 5 -12 6 10 9 21 6 23 -2 3 -7 -2 -11 -11z"/>
<path d="M1016 1639 c3 -5 14 -9 25 -9 11 0 24 -10 29 -22 6 -16 9 -18 9 -7 1
9 -5 21 -11 26 -18 14 -59 23 -52 12z"/>
<path d="M3445 1640 c-3 -6 1 -7 9 -4 18 7 21 14 7 14 -6 0 -13 -4 -16 -10z"/>
<path d="M1368 1593 c7 -3 16 -2 19 1 4 3 -2 6 -13 5 -11 0 -14 -3 -6 -6z"/>
<path d="M3128 1593 c12 -2 32 -2 45 0 12 2 2 4 -23 4 -25 0 -35 -2 -22 -4z"/>
<path d="M1236 1581 c-4 -5 3 -7 14 -4 23 6 26 13 6 13 -8 0 -17 -4 -20 -9z"/>
<path d="M3235 1578 c11 -6 23 -16 27 -22 5 -8 8 -7 8 1 0 7 -9 17 -19 23 -27
14 -41 12 -16 -2z"/>
<path d="M1124 1565 c36 -19 47 -19 22 0 -11 8 -27 15 -35 15 -9 0 -3 -7 13
-15z"/>
<path d="M3368 1573 c6 -2 18 -2 25 0 6 3 1 5 -13 5 -14 0 -19 -2 -12 -5z"/>
<path d="M1178 1543 c7 -3 16 -2 19 1 4 3 -2 6 -13 5 -11 0 -14 -3 -6 -6z"/>
<path d="M3288 1543 c7 -3 16 -2 19 1 4 3 -2 6 -13 5 -11 0 -14 -3 -6 -6z"/>
<path d="M3121 1507 c2 -1 13 -9 24 -17 19 -14 19 -14 6 3 -7 9 -18 17 -24 17
-6 0 -8 -1 -6 -3z"/>
<path d="M1420 1490 c8 -5 20 -10 25 -10 6 0 3 5 -5 10 -8 5 -19 10 -25 10 -5
0 -3 -5 5 -10z"/>
<path d="M1300 1475 c-14 -8 -20 -14 -14 -15 5 0 19 7 30 15 24 18 16 19 -16
0z"/>
<path d="M3170 1476 c0 -2 7 -7 16 -10 8 -3 12 -2 9 4 -6 10 -25 14 -25 6z"/>
<path d="M3158 1433 c12 -2 30 -2 40 0 9 3 -1 5 -23 4 -22 0 -30 -2 -17 -4z"/>
<path d="M885 1420 c3 -5 8 -10 11 -10 2 0 4 5 4 10 0 6 -5 10 -11 10 -5 0 -7
-4 -4 -10z"/>
<path d="M2235 1420 c-8 -12 5 -110 15 -110 13 0 28 98 16 110 -13 13 -23 13
-31 0z"/>
<path d="M3065 1380 c-21 -22 -37 -41 -34 -43 2 -2 21 16 43 40 49 54 43 56
-9 3z"/>
<path d="M3482 1385 c0 -16 2 -22 5 -12 2 9 2 23 0 30 -3 6 -5 -1 -5 -18z"/>
<path d="M900 1366 c0 -14 4 -27 8 -30 5 -3 6 8 4 25 -5 35 -12 38 -12 5z"/>
<path d="M3538 1315 c-1 -36 0 -65 5 -65 4 0 7 29 7 65 0 36 -2 65 -4 65 -2 0
-6 -29 -8 -65z"/>
<path d="M843 1325 c0 -27 2 -38 4 -22 2 15 2 37 0 50 -2 12 -4 0 -4 -28z"/>
<path d="M2927 1342 c-10 -10 -17 -28 -17 -40 0 -13 -5 -20 -13 -16 -17 6 -71
-51 -62 -66 4 -7 19 -10 36 -6 16 3 29 4 29 1 0 -2 -12 -41 -26 -87 -20 -62
-38 -96 -71 -135 -52 -61 -76 -66 -121 -28 -33 27 -42 31 -42 14 0 -5 5 -7 10
-4 6 3 10 2 10 -2 0 -16 61 -45 85 -41 l24 5 -27 -35 c-15 -20 -63 -62 -107
-94 -85 -61 -125 -97 -125 -111 0 -4 4 -6 9 -3 5 3 9 0 8 -7 0 -6 1 -23 2 -37
2 -23 3 -24 11 -5 5 11 9 15 9 9 1 -7 8 -15 17 -18 24 -9 196 99 270 169 75
72 152 208 202 359 25 75 25 79 8 92 -16 11 -21 10 -37 -9 l-18 -22 -1 24 c0
14 10 36 23 50 l22 26 -22 -19 c-23 -19 -23 -19 -23 5 0 46 -35 63 -63 31z
m32 -96 c-6 -43 -15 -89 -20 -103 -21 -55 0 -38 56 45 25 37 45 62 45 57 0
-18 -69 -187 -105 -258 -48 -95 -96 -150 -190 -220 -72 -54 -173 -113 -180
-105 -1 2 -5 15 -9 30 -5 23 -1 29 38 52 184 107 306 291 336 507 11 79 18 95
31 82 6 -6 5 -41 -2 -87z m-59 4 c0 -13 -9 -22 -25 -26 -37 -9 -43 3 -14 30
27 26 39 25 39 -4z"/>
<path d="M910 1296 c0 -31 6 -34 13 -6 3 11 1 23 -4 26 -5 3 -9 -6 -9 -20z"/>
<path d="M3473 1285 c0 -22 2 -30 4 -17 2 12 2 30 0 40 -3 9 -5 -1 -4 -23z"/>
<path d="M1618 1265 c26 -22 30 -30 21 -41 -8 -9 -8 -14 -1 -14 35 0 13 49
-33 72 -11 5 -5 -2 13 -17z"/>
<path d="M847 1230 c-3 -11 -1 -23 4 -26 5 -3 9 6 9 20 0 31 -6 34 -13 6z"/>
<path d="M3526 1179 c-4 -33 -5 -63 -3 -66 3 -2 8 23 12 57 4 34 5 63 2 66 -2
3 -7 -23 -11 -57z"/>
<path d="M1570 1226 c0 -2 11 -6 25 -8 13 -3 22 -1 19 3 -5 9 -44 13 -44 5z"/>
<path d="M922 1190 c0 -14 2 -19 5 -12 2 6 2 18 0 25 -3 6 -5 1 -5 -13z"/>
<path d="M725 1154 c3 -23 14 -61 25 -85 23 -52 17 -18 -11 69 -18 53 -19 54
-14 16z"/>
<path d="M3462 1170 c0 -14 2 -19 5 -12 2 6 2 18 0 25 -3 6 -5 1 -5 -13z"/>
<path d="M3610 1150 c-11 -22 -18 -40 -15 -40 2 0 14 18 25 40 11 22 18 40 15
40 -2 0 -14 -18 -25 -40z"/>
<path d="M3661 1173 c-1 -6 -4 -20 -7 -30 -5 -17 -5 -17 6 0 6 10 9 23 6 30
-3 9 -5 9 -5 0z"/>
<path d="M862 1145 c0 -16 2 -22 5 -12 2 9 2 23 0 30 -3 6 -5 -1 -5 -18z"/>
<path d="M785 1120 c9 -16 17 -30 20 -30 2 0 -1 14 -6 30 -6 17 -15 30 -20 30
-5 0 -3 -13 6 -30z"/>
<path d="M931 1124 c0 -11 3 -14 6 -6 3 7 2 16 -1 19 -3 4 -6 -2 -5 -13z"/>
<path d="M3451 1114 c0 -11 3 -14 6 -6 3 7 2 16 -1 19 -3 4 -6 -2 -5 -13z"/>
<path d="M3641 1104 c0 -11 3 -14 6 -6 3 7 2 16 -1 19 -3 4 -6 -2 -5 -13z"/>
<path d="M872 1080 c0 -14 2 -19 5 -12 2 6 2 18 0 25 -3 6 -5 1 -5 -13z"/>
<path d="M3512 1075 c0 -16 2 -22 5 -12 2 9 2 23 0 30 -3 6 -5 -1 -5 -18z"/>
<path d="M3549 1048 c-31 -49 -33 -51 -37 -28 -4 20 -7 16 -18 -25 -7 -27 -12
-51 -10 -52 3 -4 78 102 95 135 21 40 5 23 -30 -30z"/>
<path d="M941 1074 c0 -11 3 -14 6 -6 3 7 2 16 -1 19 -3 4 -6 -2 -5 -13z"/>
<path d="M820 1060 c6 -11 13 -20 16 -20 2 0 0 9 -6 20 -6 11 -13 20 -16 20
-2 0 0 -9 6 -20z"/>
<path d="M3612 1013 c-15 -48 -8 -55 8 -8 7 20 10 38 8 41 -3 2 -10 -13 -16
-33z"/>
<path d="M881 1024 c0 -11 3 -14 6 -6 3 7 2 16 -1 19 -3 4 -6 -2 -5 -13z"/>
<path d="M951 1024 c0 -11 3 -14 6 -6 3 7 2 16 -1 19 -3 4 -6 -2 -5 -13z"/>
<path d="M849 1015 c14 -30 65 -93 57 -72 -3 10 -6 25 -6 33 0 8 -6 14 -14 14
-7 0 -21 10 -30 23 -13 17 -15 18 -7 2z"/>
<path d="M961 984 c0 -11 3 -14 6 -6 3 7 2 16 -1 19 -3 4 -6 -2 -5 -13z"/>
<path d="M3416 974 c-4 -14 -5 -28 -3 -31 3 -2 8 8 11 23 4 14 5 28 3 31 -3 2
-8 -8 -11 -23z"/>
<path d="M1805 965 l-30 -25 37 17 c21 10 38 21 38 26 0 13 -15 7 -45 -18z"/>
<path d="M1888 953 c12 -2 22 -9 22 -14 0 -5 5 -9 11 -9 8 0 8 5 -1 15 -7 8
-22 14 -34 14 -20 -2 -20 -2 2 -6z"/>
<path d="M2010 935 c-19 -14 -29 -25 -23 -25 7 0 15 5 19 11 3 6 20 17 38 25
17 7 24 13 15 14 -8 0 -30 -11 -49 -25z"/>
<path d="M2561 938 c-13 -22 -13 -22 5 -7 10 9 26 19 34 22 11 4 9 6 -5 6 -11
1 -26 -9 -34 -21z"/>
<path d="M3591 944 c0 -11 3 -14 6 -6 3 7 2 16 -1 19 -3 4 -6 -2 -5 -13z"/>
<path d="M801 915 c1 -19 18 -51 18 -35 0 8 -4 22 -9 30 -5 8 -9 11 -9 5z"/>
<path d="M3561 859 c-6 -18 -9 -34 -7 -36 2 -2 9 10 15 28 6 18 9 34 7 36 -2
2 -9 -10 -15 -28z"/>
<path d="M831 830 c0 -8 6 -28 14 -45 17 -39 18 -21 0 25 -7 19 -14 28 -14 20z"/>
<path d="M3355 800 c-3 -5 -1 -10 4 -10 6 0 11 5 11 10 0 6 -2 10 -4 10 -3 0
-8 -4 -11 -10z"/>
<path d="M1041 755 c0 -5 8 -26 19 -45 11 -19 19 -30 19 -25 0 6 -8 26 -19 45
-11 19 -19 31 -19 25z"/>
<path d="M3302 675 c-17 -36 -30 -65 -27 -65 7 0 67 121 63 126 -2 2 -18 -26
-36 -61z"/>
<path d="M875 708 c4 -13 11 -27 16 -33 5 -5 4 5 -2 23 -12 36 -24 44 -14 10z"/>
<path d="M3471 628 c-10 -30 -9 -31 4 -14 8 11 15 26 15 33 0 22 -8 14 -19
-19z"/>
<path d="M1110 615 c0 -5 10 -21 21 -35 13 -17 17 -18 10 -5 -17 33 -31 51
-31 40z"/>
<path d="M2542 600 c0 -14 2 -19 5 -12 2 6 2 18 0 25 -3 6 -5 1 -5 -13z"/>
<path d="M920 604 c0 -6 7 -19 16 -30 14 -18 14 -18 3 6 -14 31 -19 36 -19 24z"/>
<path d="M3230 550 c-6 -11 -8 -20 -6 -20 3 0 10 9 16 20 6 11 8 20 6 20 -3 0
-10 -9 -16 -20z"/>
<path d="M3417 520 c-69 -123 -168 -235 -352 -399 -42 -37 -47 -43 -15 -19 51
38 150 127 199 178 69 73 210 274 199 285 -2 2 -16 -18 -31 -45z"/>
<path d="M1159 535 c5 -11 17 -29 26 -40 16 -20 16 -20 6 0 -5 11 -17 29 -26
40 -16 20 -16 20 -6 0z"/>
<path d="M2540 506 c-7 -22 -37 -59 -78 -97 -37 -34 -49 -48 -27 -31 61 46 96
84 112 121 8 18 12 35 10 38 -3 2 -10 -12 -17 -31z"/>
<path d="M950 526 c0 -2 7 -9 15 -16 13 -11 14 -10 9 4 -5 14 -24 23 -24 12z"/>
<path d="M3192 493 c-30 -44 -36 -57 -25 -50 12 7 55 77 48 77 -2 0 -12 -12
-23 -27z"/>
<path d="M2399 463 c-14 -16 -31 -37 -39 -48 -7 -11 5 0 27 24 22 24 43 39 46
34 7 -11 -41 -83 -55 -83 -4 0 -8 -5 -8 -12 0 -16 37 19 61 59 19 30 19 53 0
53 -4 0 -18 -12 -32 -27z"/>
<path d="M1021 425 c18 -25 40 -51 48 -58 8 -7 -5 14 -28 46 -51 68 -67 77
-20 12z"/>
<path d="M1247 405 c12 -16 34 -41 49 -55 19 -17 15 -10 -10 20 -53 61 -63 71
-39 35z"/>
<path d="M1936 413 c-4 -12 -15 -24 -24 -26 -15 -4 -15 -5 -1 -6 20 -1 42 24
37 41 -3 8 -8 4 -12 -9z"/>
<path d="M3139 413 c-13 -16 -12 -17 4 -4 16 13 21 21 13 21 -2 0 -10 -8 -17
-17z"/>
<path d="M2298 369 c-18 -18 -24 -25 -13 -18 30 21 60 49 52 49 -4 0 -21 -14
-39 -31z"/>
<path d="M3055 319 c-39 -39 -112 -102 -162 -141 -51 -39 -93 -73 -93 -76 0
-5 -2 -7 110 80 75 58 233 208 219 208 -2 0 -36 -32 -74 -71z"/>
<path d="M1100 326 c34 -50 222 -220 290 -265 l35 -22 -35 28 c-92 75 -210
180 -255 227 -27 29 -43 43 -35 32z"/>
<path d="M1330 313 c0 -5 11 -20 25 -33 14 -13 25 -21 25 -17 0 3 -11 18 -25
33 -14 15 -25 23 -25 17z"/>
<path d="M1895 299 c4 -5 -1 -20 -11 -32 -10 -12 -4 -9 14 7 38 35 38 36 11
36 -12 0 -17 -4 -14 -11z"/>
<path d="M2261 298 c-1 -10 -10 -22 -21 -28 -21 -11 -26 -45 -10 -70 7 -11 8
-6 4 17 -5 26 -2 36 16 51 13 10 20 25 17 33 -4 11 -6 10 -6 -3z"/>
<path d="M1400 245 c7 -9 32 -30 54 -47 37 -28 37 -27 -8 15 -49 47 -70 61
-46 32z"/>
<path d="M1853 210 c-3 -19 -16 -37 -34 -47 -16 -9 -31 -23 -34 -31 -3 -8 8
-3 25 11 16 14 33 27 38 29 9 3 25 68 17 68 -3 0 -8 -14 -12 -30z"/>
<path d="M2254 154 c-4 -14 -2 -29 3 -33 6 -3 13 -16 17 -28 5 -15 15 -23 29
-22 19 0 19 1 4 7 -23 10 -49 60 -42 84 4 10 4 18 1 18 -3 0 -9 -12 -12 -26z"/>
<path d="M274 134 c-18 -14 -18 -14 6 -3 31 14 36 19 24 19 -6 0 -19 -7 -30
-16z"/>
<path d="M1520 147 c0 -2 21 -18 48 -36 l47 -33 -40 36 c-35 31 -55 43 -55 33z"/>
<path d="M2074 116 c-3 -13 -4 -35 -1 -47 3 -17 5 -12 6 13 1 43 15 56 31 31
11 -17 11 -17 6 0 -3 10 -6 21 -6 23 0 2 -7 4 -15 4 -8 0 -17 -11 -21 -24z"/>
<path d="M1740 120 c8 -5 20 -10 25 -10 6 0 3 5 -5 10 -8 5 -19 10 -25 10 -5
0 -3 -5 5 -10z"/>
<path d="M1714 93 c2 -12 -1 -24 -8 -27 -8 -3 -8 -5 1 -5 17 -1 22 11 12 34
-9 19 -9 19 -5 -2z"/>
<path d="M2781 69 c0 -13 4 -33 9 -44 7 -14 8 -8 3 20 -7 46 -13 59 -12 24z"/>
<path d="M2139 56 c13 -16 51 -41 51 -33 0 2 -15 14 -32 27 -21 15 -28 17 -19
6z"/>
<path d="M1690 45 c0 -5 5 -17 10 -25 5 -8 10 -10 10 -5 0 6 -5 17 -10 25 -5
8 -10 11 -10 5z"/>
<path d="M2329 33 c-13 -16 -12 -17 4 -4 16 13 21 21 13 21 -2 0 -10 -8 -17
-17z"/>
<path d="M2944 34 c-18 -14 -18 -15 4 -4 12 6 22 13 22 15 0 8 -5 6 -26 -11z"/>
<path d="M1591 14 c0 -11 3 -14 6 -6 3 7 2 16 -1 19 -3 4 -6 -2 -5 -13z"/>
<path d="M2061 14 c0 -11 3 -14 6 -6 3 7 2 16 -1 19 -3 4 -6 -2 -5 -13z"/>
<path d="M1467 9 c7 -7 15 -10 18 -7 3 3 -2 9 -12 12 -14 6 -15 5 -6 -5z"/>
<path d="M2285 10 c-16 -7 -17 -9 -3 -9 9 -1 20 4 23 9 7 11 7 11 -20 0z"/>
<path d="M1733 3 c9 -2 25 -2 35 0 9 3 1 5 -18 5 -19 0 -27 -2 -17 -5z"/>
<path d="M2238 3 c7 -3 16 -2 19 1 4 3 -2 6 -13 5 -11 0 -14 -3 -6 -6z"/>
</g>
</svg>
